How long do maps on ggplot facets take? – H. Sherry Zhang
…
      May 21, 2022

If you’re a ggplot user, faceted plots must be under your belt. If you happen to do some spatial analysis, you can’t be more familiar with maps. Today, I will show you my findings on the rendering time of faceted map.

This example comes from Chapter 7 of Paula Moraga’s book Geospatial Health Data: Modeling and Visualization with R-INLA and Shiny and I have simplified it for my demonstration. In essence, there are two datasets:

Map data (ohio) with 88 Ohio counties in an sf object:

Simple feature collection with 88 features and 1 field
Geometry type: POLYGON
Dimension:     XY
Bounding box:  xmin: -84.8203 ymin: 38.40342 xmax: -80.5182 ymax: 42.32713
Geodetic CRS:  NAD83
# A tibble: 88 × 2
   NAME                                                                 geometry
   <chr>                                                           <POLYGON [°]>
 1 Auglaize   ((-84.13476 40.65755, -84.13467 40.65755, -84.13405 40.65753, -84…
 2 Crawford   ((-82.77258 40.99589, -82.77258 40.99588, -82.77168 40.99588, -82…
 3 Montgomery ((-84.06231 39.8366, -84.06301 39.83665, -84.06501 39.83677, -84.…
 4 Guernsey   ((-81.22986 40.06315, -81.22987 40.06308, -81.22992 40.06119, -81…
 5 Clark      ((-83.83875 39.8233, -83.83889 39.82335, -83.83904 39.82339, -83.…
 6 Gallia     ((-82.18737 38.72608, -82.18727 38.72558, -82.18707 38.72488, -82…
 7 Fairfield  ((-82.82307 39.80773, -82.82307 39.8078, -82.82305 39.80801, -82.…
 8 Darke      ((-84.43157 40.15801, -84.43148 40.15487, -84.43148 40.1542, -84.…
 9 Monroe     ((-81.22569 39.57838, -81.24065 39.57883, -81.2413 39.57885, -81.…
10 Portage    ((-81.3184 40.98861, -81.31892 40.98862, -81.31927 40.98862, -81.…
# … with 78 more rows

Lung cancer data (sir) with standardized incidence ratios (SIRs) calculated for each county across 21 years (1968 - 1988):

# A tibble: 1,848 × 3
   county  year   SIR
   <chr>  <dbl> <dbl>
 1 Adams   1968 0.725
 2 Adams   1969 0.588
 3 Adams   1970 1.03 
 4 Adams   1971 0.654
 5 Adams   1972 1.05 
 6 Adams   1973 0.693
 7 Adams   1974 1.15 
 8 Adams   1975 1.17 
 9 Adams   1976 0.936
10 Adams   1977 0.644
# … with 1,838 more rows
…
